{
	"References":
	{
		"bnapus":
		{
			"__comment": { "sequence_descr": "remplacé par seq_len key" },
			"__todo":
			{
				"sequence_descr": "/home/sletort/seqRefs_addon/Bnapus.un_karyotype_sorti_d_ou"
			},
			"genome-build": { "source": "genoscope", "name": "v4.1" },
			"fasta_filepath": "/groups/brassica/db/species/seq/Bnapus/REFERENCES/Darmor-bzh/v4.1/Brassica_napus_v4.1.chromosomes.fasta",
			"seq_len": "/groups/brassica/db/species/seq/Bnapus/REFERENCES/Darmor-bzh/v4.1/Brassica_napus_v4.1.seq_len.tsv",
			"annot":
			{
				"te": "/groups/brassica/db/species/seq/Bnapus/Darmor-bzh_INRA/downloadCNS/140814/TE.masquage.final.gff",
				"genes": "/groups/brassica/db/species/seq/Bnapus/Darmor-bzh_INRA/downloadCNS/140814/Annotation.FINALNAMES.gff3" 
			}
		},
		"bnapus_mito":
		{
			"species_URI": "https://www.ncbi.nlm.nih.gov/Taxonomy/Browser/wwwtax.cgi?id=3708",
			"genome-build": { "source": "NCBI", "name": "v2.0" },
			"fasta_filepath": "/groups/brassica/db/species/seq/Bnapus/REFERENCES/MT_Pltd/bna_ref_Bra_napus_v2.0_chrMT.fa",
			"seq_len": "/groups/brassica/db/species/seq/Bnapus/REFERENCES/MT_Pltd/bna_ref_Bra_napus_v2.0.seq_len.tsv"
		},
		"bnapus_chloro":
		{
			"species_URI": "https://www.ncbi.nlm.nih.gov/Taxonomy/Browser/wwwtax.cgi?id=3708",
			"genome-build": { "source": "NCBI", "name": "v2.0" },
			"fasta_filepath": "/groups/brassica/db/species/seq/Bnapus/REFERENCES/MT_Pltd/bna_ref_Bra_napus_v2.0_chrPltd.fa",
			"seq_len": "/groups/brassica/db/species/seq/Bnapus/REFERENCES/MT_Pltd/bna_ref_Bra_napus_v2.0.seq_len.tsv"
		}
	},
	"genomes":
	{
		"bnapus":
		{
			"species_URI": "https://www.ncbi.nlm.nih.gov/Taxonomy/Browser/wwwtax.cgi?id=3708",
			"v4.1":
			{
				"__comment": { "sequence_descr": "remplacé par seq_len key" },
				"__todo":
				{
					"sequence_descr": "/home/sletort/seqRefs_addon/Bnapus.un_karyotype_sorti_d_ou"
				},
				"genome-build": { "source": "genoscope", "name": "v4.1" },
				"fasta_filepath": "/groups/brassica/db/species/seq/Bnapus/REFERENCES/Darmor-bzh/v4.1/Brassica_napus_v4.1.chromosomes.fasta",
				"seq_len": "/groups/brassica/db/species/seq/Bnapus/REFERENCES/Darmor-bzh/v4.1/Brassica_napus_v4.1.seq_len.tsv",
				"annot":
				{
					"te": "/groups/brassica/db/species/seq/Bnapus/Darmor-bzh_INRA/downloadCNS/140814/TE.masquage.final.gff",
					"genes": "/groups/brassica/db/species/seq/Bnapus/Darmor-bzh_INRA/downloadCNS/140814/Annotation.FINALNAMES.gff3" 
				}
			},
			"v8.1":
			{
				"genome-build": { "source": "appliedbioinformatics", "name": "v8.1" },
				"fasta_filepath": "/groups/brassica/db/species/seq/Bnapus/REFERENCES/Darmor-bzh/v8.1/Brassica_napus_v8.1.fasta",
				"seq_len": "/groups/brassica/db/species/seq/Bnapus/REFERENCES/Darmor-bzh/v8.1/Brassica_napus_v8.1.seq_len.tsv",
				"annot":
				{
					"genes": "/groups/brassica/db/species/seq/Bnapus/Darmor-bzh_v8.1/Darmor_v8.1_assembly.augustus_masked_filtered.gff/Darmor_v81_assembly.augustus_masked_filtered_renamedFields_sorted_Proper_renamed.gff"
				}
			}
		}
	}
}
