#cultivar	species	key_path
c1.3	brapa	BKK_BOSW_6_
z1	brapa	BKK_AOSW_6_
hdem	boleracea	BKL_BOSW_1_
rc34	boleracea	BKL_AOSW_7_
bronowski	bnapus	BRONOWSKI_reads
drakkar	bnapus	DRAKKAR_reads
oro	bnapus	ORO_reads
petranova	bnapus	PETRANOVA_reads
tanto	bnapus	TANTO_reads
RCCS0	bnapus_synt	02RCC-col38-S0/RCCS0_reads
FG019	bnapus_synt	13EMZ3-S3-70-TF/FG019/FG019_TF_reads
FG023	bnapus_synt	13EMZ3-S3-70-TF/FG023/FG023_TF_reads
FG026	bnapus_synt	13EMZ3-S3-70-TF/FG026/FG026_TF_reads
FG027	bnapus_synt	13EMZ3-S3-70-TF/FG027/FG027_TF_reads
FG028	bnapus_synt	13EMZ3-S3-70-TF/FG028/FG028_TF_reads
FG078	bnapus_synt	13EMZ3-S3-PF/FG078/FG078_PF_reads
FG084	bnapus_synt	13EMZ3-S3-PF/FG084/FG084_PF_reads
FG090	bnapus_synt	13EMZ3-S3-PF/FG090/FG090_PF_reads
FG092	bnapus_synt	13EMZ3-S3-PF/FG092/FG092_PF_reads
FG108	bnapus_synt	13EMZ3-S3-PF/FG108/FG108_PF_reads
FG037	bnapus_synt	13RCC1-S3-8_5-TF/FG037/FG037_TF_reads
FG039	bnapus_synt	13RCC1-S3-8_5-TF/FG039/FG039_TF_reads
FG042bis	bnapus_synt	13RCC1-S3-8_5-TF/FG042bis/FG042bis_TF_reads
FG043	bnapus_synt	13RCC1-S3-8_5-TF/FG043/FG043_TF_reads
FG069	bnapus_synt	13RCC1-S3-8_5-TF/FG069/FG069_TF_reads
FG054	bnapus_synt	13RCC3-S3-10-PF/FG054/FG054_PF_reads
FG055	bnapus_synt	13RCC3-S3-10-PF/FG055/FG055_PF_reads
FG057	bnapus_synt	13RCC3-S3-10-PF/FG057/FG057_PF_reads
FG071	bnapus_synt	13RCC3-S3-10-PF/FG071/FG071_PF_reads
FG072	bnapus_synt	13RCC3-S3-10-PF/FG072/FG072_PF_reads
